{ 
	"site_title_font_control":{
		"font-family": "Quicksand",
		"variant": "700",
		"font-size": "24px",
		"text-transform": "none",
		"line-height": "1.2",
		"font-weight": 700,
		"font-style": "normal"
	},
	"site_description_font_control":{
		"font-family": "Quicksand",
		"variant": "600",
		"font-size": "14px",
		"text-transform": "none",
		"font-weight": 600,
		"font-style": "normal"
	},
	"main_menu_font_control":{
		"font-family": "Quicksand",
		"variant": "700",
		"font-size": "16px",
		"text-transform": "none",
		"line-height": "1.5",
		"font-weight": 700,
		"font-style": "normal"
	},
	"main_menu_description_font_control":{
		"font-family": "Quicksand",
		"variant": "500",
		"font-size": "13px",
		"text-transform": "none",
		"line-height": "1.4",
		"font-weight": 500,
		"font-style": "normal"
	},
	"body_font_control":{
		"font-family": "Quicksand",
		"variant": "500",
		"font-size": "16px",
		"font-weight": 500,
		"font-style": "normal"
	},
	"general_title_font_control":{
		"font-family": "Quicksand",
		"variant": "700",
		"text-transform": "none",
		"font-weight": 700,
		"font-style": "normal"
	},
	"page_title_font_control":{
		"font-family": "Quicksand",
		"variant": "700",
		"font-size": "40px",
		"text-transform": "capitalize",
		"font-weight": 700,
		"font-style": "normal"
	},
	"section_title_font_control":{
		"font-family": "Quicksand",
		"variant": "500",
		"font-size": "32px",
		"text-transform": "capitalize",
		"font-weight": 500,
		"font-style": "normal"
	},
	"main_slider_title_font_control":{
		"font-family": "Quicksand",
		"variant": "700",
		"font-size": "52px",
		"text-transform": "capitalize",
		"line-height": "1.2",
		"font-weight": 700,
		"font-style": "normal"
	},
	"main_slider_cat_font_control":{
		"font-family": "Quicksand",
		"variant": "500",
		"font-size": "13px",
		"text-transform": "uppercase",
		"line-height": "1.6",
		"font-weight": 500,
		"font-style": "normal"
	},
	"main_slider_meta_font_control":{
		"font-family": "Quicksand",
		"variant": "500",
		"font-size": "13px",
		"text-transform": "capitalize",
		"line-height": "1.6",
		"font-weight": 500,
		"font-style": "normal"
	},
	"main_slider_excerpt_font_control":{
		"font-family": "Quicksand",
		"variant": "500",
		"font-size": "16px",
		"text-transform": "initial",
		"line-height": "1.6",
		"font-weight": 500,
		"font-style": "normal"
	},
	"main_slider_button_font_control":{
		"font-family": "Quicksand",
		"variant": "700",
		"font-size": "16px",
		"text-transform": "capitalize",
		"line-height": "1",
		"font-weight": 700,
		"font-style": "normal"
	},
	"header_buttons_font_control":{
		"font-family": "Quicksand",
		"variant": "700",
		"font-size": "14px",
		"text-transform": "uppercase",
		"line-height": "1",
		"font-weight": 700,
		"font-style": "normal"
	},
	"feature_posts_section_title_font_control":{
		"font-family": "Quicksand",
		"variant": "700",
		"font-size": "32px",
		"text-transform": "capitalize",
		"line-height": "1.2",
		"font-weight": 700,
		"font-style": "normal"
	},
	"feature_posts_section_description_font_control":{
		"font-family": "Quicksand",
		"variant": "500",
		"font-size": "16px",
		"text-transform": "none",
		"line-height": "1.8",
		"font-weight": 500,
		"font-style": "normal"
	},
	"feature_posts_font_control":{
		"font-family": "Quicksand",
		"variant": "700",
		"font-size": "20px",
		"text-transform": "capitalize",
		"line-height": "1.4",
		"font-weight": 700,
		"font-style": "normal"
	},
	"featured_posts_cat_font_control":{
		"font-family": "Quicksand",
		"variant": "600",
		"font-size": "13px",
		"text-transform": "uppercase",
		"line-height": "1",
		"font-weight": 600,
		"font-style": "normal"
	},
	"featured_posts_meta_font_control":{
		"font-family": "Quicksand",
		"variant": "500",
		"font-size": "13px",
		"text-transform": "capitalize",
		"line-height": "1.6",
		"font-weight": 500,
		"font-style": "normal"
	},
	"latest_posts_section_title_font_control":{
		"font-family": "Quicksand",
		"variant": "800",
		"font-size": "30px",
		"text-transform": "uppercase",
		"line-height": "1.2",
		"font-weight": 800,
		"font-style": "normal"
	},
	"latest_posts_section_description_font_control":{
		"font-family": "Quicksand",
		"variant": "regular",
		"font-size": "16px",
		"text-transform": "none",
		"line-height": "1.8",
		"font-weight": 400,
		"font-style": "normal"
	},
	"blog_post_title_font_control":{
		"font-family": "Quicksand",
		"variant": "700",
		"font-size": "24px",
		"text-transform": "capitalize",
		"line-height": "1.4",
		"font-weight": 700,
		"font-style": "normal"
	},
	"blog_post_cat_font_control":{
		"font-family": "Quicksand",
		"variant": "700",
		"font-size": "13px",
		"text-transform": "uppercase",
		"line-height": "1.6",
		"font-weight": 700,
		"font-style": "normal"
	},
	"blog_post_meta_font_control":{
		"font-family": "Quicksand",
		"variant": "500",
		"font-size": "13px",
		"text-transform": "capitalize",
		"line-height": "1.6",
		"font-weight": 500,
		"font-style": "normal"
	},
	"blog_post_excerpt_font_control":{
		"font-family": "Quicksand",
		"variant": "500",
		"font-size": "16px",
		"text-transform": "initial",
		"line-height": "1.8",
		"font-weight": 500,
		"font-style": "normal"
	},
	"highlight_posts_section_title_font_control":{
		"font-family": "Quicksand",
		"variant": "700",
		"font-size": "32px",
		"text-transform": "capitalize",
		"line-height": "1.2",
		"font-weight": 700,
		"font-style": "normal"
	},
	"highlight_posts_section_description_font_control":{
		"font-family": "Quicksand",
		"variant": "500",
		"font-size": "16px",
		"text-transform": "none",
		"line-height": "1.8",
		"font-weight": 500,
		"font-style": "normal"
	},
	"highlight_posts_title_font_control":{
		"font-family": "Quicksand",
		"variant": "700",
		"font-size": "20px",
		"text-transform": "capitalize",
		"line-height": "1.4",
		"font-weight": 700,
		"font-style": "normal"
	},
	"highlight_posts_cat_font_control":{
		"font-family": "Quicksand",
		"variant": "700",
		"font-size": "13px",
		"text-transform": "uppercase",
		"line-height": "1",
		"font-weight": 700,
		"font-style": "normal"
	},
	"highlight_posts_meta_font_control":{
		"font-family": "Quicksand",
		"variant": "500",
		"font-size": "13px",
		"text-transform": "capitalize",
		"line-height": "1.6",
		"font-weight": 500,
		"font-style": "normal"
	},
	"sidebar_widget_title_font_control":{
		"font-family": "Quicksand",
		"variant": "700",
		"font-size": "16px",
		"text-transform": "uppercase",
		"line-height": "1.4",
		"font-weight": 700,
		"font-style": "normal"
	},
	"footer_widget_title_font_control":{
		"font-family": "Quicksand",
		"variant": "700",
		"font-size": "18px",
		"text-transform": "capitalize",
		"line-height": "1.4",
		"font-weight": 700,
		"font-style": "normal"
	},
	"footer_style_font_control":{
		"font-family": "Quicksand",
		"variant": "600",
		"font-size": "15px",
		"text-transform": "none",
		"line-height": "1.6",
		"font-weight": 600,
		"font-style": "normal"
	},
	"slider_width_controls" : "boxed",
	"main_slider_content_alignment" : "left",
	"feature_posts_columns" : "four_columns",
	"feature_posts_posts_number" : 4,
	"feature_posts_height" : 320,
	"feature_posts_radius" : 10,
	"archive_post_layout" : "grid",
	"highlight_posts_radius" : 10,
	"footer_layout" : "footer_two"
}