{
    "disable_highlight_posts_section_title": true,
    "header_icon_color": "#B7B7B7",
    "contact_label_font_control": {
        "font-family": "Open Sans",
        "variant": "regular",
        "font-size": "13px",
        "text-transform": "none",
        "line-height": "1.6"
    },
    "disable_mobile_contact_details" : false,
    "contact_content_font_control": {
        "font-family": "Poppins",
        "variant": "600",
        "font-size": "16px",
        "text-transform": "none",
        "line-height": "1.6"
    },
    "site_primary_color": "#E12454",
    "featured_post_category_bgcolor": "#E12454",
    "blog_post_category_color": "#E12454",
    "slider_post_meta_icon_color": "#8cb46c",
    "featured_post_meta_icon_color": "#8cb46c",
    "highlight_post_meta_icon_color": "#8cb46c",
    "blog_post_meta_icon_color": "#8cb46c",
    "highlight_post_category_bgcolor": "#E12454",
    "sale_tag_bg_color": "#E12454",
    "site_hover_color": "#8cb46c",
    "top_hover_color_transparent_header": "#8cb46c",
    "content_hover_color_transparent_header": "#8cb46c",
    "top_header_text_link_hover_color": "#8cb46c",
    "mid_header_text_link_hover_color": "#8cb46c",
    "bottom_header_text_link_hover_color": "#8cb46c",
    "sub_menu_link_hover_color": "#8cb46c",
    "top_footer_widget_link_hover_color": "#8cb46c",
    "bottom_footer_text_link_hover_color": "#8cb46c",
    "separate_hover_color_for_main_slider": "#8cb46c",
    "featured_post_hover_color": "#8cb46c",
    "highlight_post_hover_color": "#8cb46c",
    "blog_post_hover_color": "#8cb46c"
}