{ 
	"site_title_font_control":{
		"font-family": "Montserrat",
		"variant": "600",
		"font-size": "30px",
		"text-transform": "none",
		"line-height" : "1",
		"font-weight": 600,
		"font-style": "normal"
	},
	"site_description_font_control":{
		"font-family": "Open Sans",
		"variant": "regular",
		"font-size": "14px",
		"text-transform": "none",
		"font-weight": 400,
		"font-style": "normal"
	},
	"main_menu_font_control":{
		"font-family": "Open Sans",
		"variant": "600",
		"font-size": "15px",
		"text-transform": "uppercase",
		"line-height": "1.5",
		"font-weight": 600,
		"font-style": "normal"
	},
	"main_menu_description_font_control":{
		"font-family": "Open Sans",
		"variant": "regular",
		"font-size": "11px",
		"text-transform": "none",
		"line-height": "1.3",
		"font-weight": 400,
		"font-style": "normal"
	},
	"body_font_control":{
		"font-family": "Open Sans",
		"variant": "regular",
		"font-size": "15px",
		"font-weight": 400,
		"font-style": "normal"
	},
	"general_title_font_control":{
		"font-family": "Montserrat",
		"variant": "500",
		"text-transform": "none",
		"font-weight": 500,
		"font-style": "normal"
	},
	"page_title_font_control":{
		"font-family": "Montserrat",
		"variant": "600",
		"font-size": "48px",
		"text-transform": "none",
		"font-weight": 600,
		"font-style": "normal"
	},
	"main_slider_layout" : "main_slider_two",
	"main_slider_height" : 550,
	"background_color_main_slider" : "",
	"main_slider_content_alignment" : "left",
	"main_slider_title_font_control":{
		"font-family": "Montserrat",
		"variant": "600",
		"font-size": "42px",
		"text-transform": "none",
		"line-height": "1.4",
		"font-weight": 600,
		"font-style": "normal"
	},
	"main_slider_cat_font_control":{
		"font-family": "Open Sans",
		"variant": "regular",
		"font-size": "15px",
		"text-transform": "uppercase",
		"line-height": "1.6",
		"font-weight": 400,
		"font-style": "normal"
	},
	"main_slider_meta_font_control":{
		"font-family": "Montserrat",
		"variant": "regular",
		"font-size": "13px",
		"text-transform": "capitalize",
		"line-height": "1.6",
		"font-weight": 400,
		"font-style": "normal"
	},
	"main_slider_excerpt_font_control":{
		"font-family": "Open Sans",
		"variant": "regular",
		"font-size": "16px",
		"text-transform": "initial",
		"line-height": "1.8",
		"font-weight": 400,
		"font-style": "normal"
	},
	"main_slider_button_font_control":{
		"font-family": "Open Sans",
		"variant": "regular",
		"font-size": "15px",
		"text-transform": "capitalize",
		"line-height": "1",
		"font-weight": 400,
		"font-style": "normal"
	},
	"feature_posts_section_title_font_control":{
		"font-family": "Montserrat",
		"variant": "600",
		"font-size": "24px",
		"text-transform": "uppercase",
		"line-height": "1.2",
		"font-weight": 600,
		"font-style": "normal"
	},
	"feature_posts_section_description_font_control":{
		"font-family": "Open Sans",
		"variant": "regular",
		"font-size": "16px",
		"text-transform": "none",
		"line-height": "1.8",
		"font-weight": 400,
		"font-style": "normal"
	},
	"feature_posts_section_layouts" : "feature_two",
	"featured_post_title_color" : "#151515",
	"featured_post_category_color" : "#EB5A3E",
	"featured_post_meta_color" : "#747474",
	"featured_post_meta_icon_color" : "#EB5A3E",
	"feature_posts_font_control":{
		"font-family": "Montserrat",
		"variant": "600",
		"font-size": "14px",
		"text-transform": "uppercase",
		"line-height": "1.4",
		"font-weight": 600,
		"font-style": "normal"
	},
	"featured_posts_cat_font_control":{
		"font-family": "Montserrat",
		"variant": "500",
		"font-size": "12px",
		"text-transform": "capitalize",
		"line-height": "1",
		"font-weight": 500,
		"font-style": "normal"
	},
	"featured_posts_meta_font_control":{
		"font-family": "Montserrat",
		"variant": "500",
		"font-size": "12px",
		"text-transform": "capitalize",
		"line-height": "1.6",
		"font-weight": 500,
		"font-style": "normal"
	},
	"latest_posts_section_title_font_control":{
		"font-family": "Montserrat",
		"variant": "600",
		"font-size": "24px",
		"text-transform": "uppercase",
		"line-height": "1.2",
		"font-weight": 600,
		"font-style": "normal"
	},
	"latest_posts_section_description_font_control":{
		"font-family": "Open Sans",
		"variant": "regular",
		"font-size": "16px",
		"text-transform": "none",
		"line-height": "1.8",
		"font-weight": 400,
		"font-style": "normal"
	},
	"blog_post_title_font_control":{
		"font-family": "Montserrat",
		"variant": "500",
		"font-size": "18px",
		"text-transform": "capitalize",
		"line-height": "1.4",
		"font-weight": 500,
		"font-style": "normal"
	},
	"blog_post_cat_font_control":{
		"font-family": "Open Sans",
		"variant": "regular",
		"font-size": "13px",
		"text-transform": "uppercase",
		"line-height": "1.6",
		"font-weight": 400,
		"font-style": "normal"
	},
	"blog_post_meta_font_control":{
		"font-family": "Montserrat",
		"variant": "regular",
		"font-size": "13px",
		"text-transform": "capitalize",
		"line-height": "1.6",
		"font-weight": 400,
		"font-style": "normal"
	},
	"blog_post_excerpt_font_control":{
		"font-family": "Open Sans",
		"variant": "regular",
		"font-size": "15px",
		"text-transform": "initial",
		"line-height": "1.8",
		"font-weight": 400,
		"font-style": "normal"
	},
	"archive_post_layout" : "grid",
	"highlight_posts_section_title_font_control":{
		"font-family": "Montserrat",
		"variant": "600",
		"font-size": "20px",
		"text-transform": "capitalize",
		"line-height": "1.2",
		"font-weight": 600,
		"font-style": "normal"
	},
	"highlight_posts_section_description_font_control":{
		"font-family": "Open Sans",
		"variant": "regular",
		"font-size": "16px",
		"text-transform": "none",
		"line-height": "1.8",
		"font-weight": 400,
		"font-style": "normal"
	},
	"highlight_posts_title_font_control":{
		"font-family": "Montserrat",
		"variant": "500",
		"font-size": "16px",
		"text-transform": "none",
		"line-height": "1.4",
		"font-weight": 500,
		"font-style": "normal"
	},
	"highlight_posts_cat_font_control":{
		"font-family": "Montserrat",
		"variant": "regular",
		"font-size": "12px",
		"text-transform": "capitalize",
		"line-height": "1",
		"font-weight": 400,
		"font-style": "normal"
	},
	"highlight_posts_meta_font_control":{
		"font-family": "Open Sans",
		"variant": "500",
		"font-size": "12px",
		"text-transform": "capitalize",
		"line-height": "1.6",
		"font-weight": 500,
		"font-style": "normal"
	},
	"sidebar_widget_title_font_control":{
		"font-family": "Montserrat",
		"variant": "600",
		"font-size": "14px",
		"text-transform": "capitalize",
		"line-height": "1.4",
		"font-weight": 600,
		"font-style": "normal"
	},
	"footer_widget_title_font_control":{
		"font-family": "Montserrat",
		"variant": "600",
		"font-size": "18px",
		"text-transform": "capitalize",
		"line-height": "1.4",
		"font-weight": 600,
		"font-style": "normal"
	},
	"header_layout" : "header_twelve",
	"mid_header_background_color" : "",
	"mid_header_text_link_hover_color" : "#086abd",
	"header_advertisement_banner" : "",
	"header_advertisement_banner_link" : "",
	"disable_mid_header_border" : false,
	"header_home_icon_bg_color" : "#EB5A3E",
	"header_home_icon_hover_bg_color" : "#086abd",
	"disable_header_date" : false,
	"disable_header_home_icon" : false,
	"disable_mobile_mid_header_border" : false,
	"disable_mobile_date" : false,
	"disable_mobile_ad_banner" : false,
	"disable_secondary_menu" : false,
	"header_image_height" : false,
	"footer_layout" : "footer_two",
	"footer_style_font_control":{
		"font-family": "Montserrat",
		"variant": "500",
		"font-size": "14px",
		"text-transform": "none",
		"line-height": "1.6",
		"font-weight": 500,
		"font-style": "normal"
	},
	"sidebar_settings" : "right-left",
	"highlight_posts_slides_show" : 4
}