{ 
	"site_title_font_control":{
		"font-family": "Jost",
		"variant": "500",
		"font-size": "25px",
		"text-transform": "uppercase",
		"line-height": "1.2",
		"font-weight": 500,
		"font-style": "normal"
	},
	"site_description_font_control":{
		"font-family": "Poppins",
		"variant": "regular",
		"font-size": "14px",
		"text-transform": "none",
		"font-weight": 400,
		"font-style": "normal"
	},
	"woo_cat_menu_font_control":{
		"font-family": "Jost",
		"variant": "500",
		"font-size": "15px",
		"text-transform": "none",
		"line-height": "1.5",
		"font-weight": 500,
		"font-style": "normal"
	},
	"main_menu_font_control":{
		"font-family": "Jost",
		"variant": "500",
		"font-size": "16px",
		"text-transform": "none",
		"line-height": "1.5",
		"font-weight": 500,
		"font-style": "normal"
	},
	"main_menu_description_font_control":{
		"font-family": "Poppins",
		"variant": "regular",
		"font-size": "11px",
		"text-transform": "none",
		"line-height": "1.3",
		"font-weight": 400,
		"font-style": "normal"
	},
	"body_font_control":{
		"font-family": "Poppins",
		"variant": "regular",
		"font-size": "14px",
		"font-weight": 400,
		"font-style": "normal"
	},
	"general_title_font_control":{
		"font-family": "Jost",
		"variant": "500",
		"text-transform": "none",
		"font-weight": 500,
		"font-style": "normal"
	},
	"page_title_font_control":{
		"font-family": "Jost",
		"variant": "500",
		"font-size": "42px",
		"text-transform": "none",
		"font-weight": 500,
		"font-style": "normal"
	},
	"main_slider_title_font_control":{
		"font-family": "Jost",
		"variant": "500",
		"font-size": "52px",
		"text-transform": "uppercase",
		"line-height": "1.2",
		"font-weight": 500,
		"font-style": "normal"
	},
	"main_slider_cat_font_control":{
		"font-family": "Poppins",
		"variant": "regular",
		"font-size": "15px",
		"text-transform": "uppercase",
		"line-height": "1.6",
		"font-weight": 400,
		"font-style": "normal"
	},
	"main_slider_meta_font_control":{
		"font-family": "Poppins",
		"variant": "regular",
		"font-size": "13px",
		"text-transform": "capitalize",
		"line-height": "1.6",
		"font-weight": 400,
		"font-style": "normal"
	},
	"main_slider_excerpt_font_control":{
		"font-family": "Poppins",
		"variant": "regular",
		"font-size": "15px",
		"text-transform": "initial",
		"line-height": "1.8",
		"font-weight": 400,
		"font-style": "normal"
	},
	"main_slider_button_font_control":{
		"font-family": "Jost",
		"variant": "400",
		"font-size": "14px",
		"text-transform": "uppercase",
		"line-height": "1.4",
		"font-weight": 400,
		"font-style": "normal"
	},
	"main_slider_content_alignment": "left",
	"latest_posts_section_title_font_control":{
		"font-family": "Jost",
		"variant": "500",
		"font-size": "36px",
		"text-transform": "none",
		"line-height": "1.2",
		"font-weight": 500,
		"font-style": "normal"
	},
	"latest_posts_section_description_font_control":{
		"font-family": "Poppins",
		"variant": "regular",
		"font-size": "15px",
		"text-transform": "none",
		"line-height": "1.8",
		"font-weight": 400,
		"font-style": "normal"
	},
	"blog_post_title_font_control":{
		"font-family": "Jost",
		"variant": "500",
		"font-size": "22px",
		"text-transform": "capitalize",
		"line-height": "1.4",
		"font-weight": 500,
		"font-style": "normal"
	},
	"blog_post_cat_font_control":{
		"font-family": "Poppins",
		"variant": "regular",
		"font-size": "13px",
		"text-transform": "uppercase",
		"line-height": "1",
		"font-weight": 400,
		"font-style": "normal"
	},
	"blog_post_meta_font_control":{
		"font-family": "Poppins",
		"variant": "regular",
		"font-size": "13px",
		"text-transform": "capitalize",
		"line-height": "1.6",
		"font-weight": 400,
		"font-style": "normal"
	},
	"blog_post_excerpt_font_control":{
		"font-family": "Poppins",
		"variant": "regular",
		"font-size": "15px",
		"text-transform": "initial",
		"line-height": "1.8",
		"font-weight": 400,
		"font-style": "normal"
	},
	"highlight_posts_section_title_font_control":{
		"font-family": "Jost",
		"variant": "500",
		"font-size": "36px",
		"text-transform": "none",
		"line-height": "1.2",
		"font-weight": 500,
		"font-style": "normal"
	},
	"highlight_posts_section_description_font_control":{
		"font-family": "Poppins",
		"variant": "regular",
		"font-size": "15px",
		"text-transform": "none",
		"line-height": "1.8",
		"font-weight": 400,
		"font-style": "normal"
	},
	"highlight_posts_title_font_control":{
		"font-family": "Jost",
		"variant": "500",
		"font-size": "20px",
		"text-transform": "none",
		"line-height": "1.4",
		"font-weight": 500,
		"font-style": "normal"
	},
	"highlight_posts_cat_font_control":{
		"font-family": "Poppins",
		"variant": "regular",
		"font-size": "13px",
		"text-transform": "capitalize",
		"line-height": "1",
		"font-weight": 400,
		"font-style": "normal"
	},
	"highlight_posts_meta_font_control":{
		"font-family": "Poppins",
		"variant": "regular",
		"font-size": "13px",
		"text-transform": "capitalize",
		"line-height": "1.6",
		"font-weight": 400,
		"font-style": "normal"
	},
	"sidebar_widget_title_font_control":{
		"font-family": "Jost",
		"variant": "500",
		"font-size": "18px",
		"text-transform": "uppercase",
		"line-height": "1.4",
		"font-weight": 500,
		"font-style": "normal"
	},
	"footer_widget_title_font_control":{
		"font-family": "Jost",
		"variant": "500",
		"font-size": "20px",
		"text-transform": "none",
		"line-height": "1.4",
		"font-weight": 500,
		"font-style": "normal"
	},
	"header_layout" : "header_one",
	"disable_top_header_section" : false,
	"header_advertisement_banner_link" : "#",
	"mid_header_text_color" : "#333333",
	"mid_header_text_link_hover_color" : "#086abd",
	"disable_mid_header_border" : false,
	"disable_header_woo_cat_menu" : false,
	"header_woo_cat_menu_bg_color" : "#333333",
	"header_woo_cat_menu_text_color" : "#ffffff",
	"header_image_height" : 120,
	"disable_contact_detail" : false,
	"disable_woocommerce_compare" : false,
	"disable_woocommerce_wishlist" : false,
	"disable_woocommerce_account" : false,
	"disable_woocommerce_cart" : false,
	"disable_mobile_mid_header_border" : false,
	"disable_mobile_header_woo_cat_menu" : false,
	"disable_mobile_ad_banner" : false,
	"disable_secondary_menu" : false,
	"footer_layout" : "footer_two",
	"footer_style_font_control":{
		"font-family": "Poppins",
		"variant": "500",
		"font-size": "15px",
		"text-transform": "none",
		"line-height": "1.6",
		"font-weight": 500,
		"font-style": "normal"
	},
	"bottom_footer_image_target" : true,
	"bottom_footer_image_width" : 270,
	"disable_footer_border" : false,
	"disable_feature_posts_section" : false,
	"disable_feature_posts_section_title" : true,
	"feature_posts_section_title_font_control":{
		"font-family": "Jost",
		"variant": "500",
		"font-size": "36px",
		"text-transform": "capitalize",
		"line-height": "1.2",
		"font-weight": 500,
		"font-style": "normal"
	},
	"disable_feature_posts_section_description" : true,
	"feature_posts_section_description_font_control":{
		"font-family": "Poppins",
		"variant": "regular",
		"font-size": "15px",
		"text-transform": "none",
		"line-height": "1.8",
		"font-weight": 400,
		"font-style": "normal"
	},
	"feature_posts_section_title_desc_alignment" : "left",
	"feature_posts_section_layouts" : "feature_one",
	"featured_post_title_color" : "#FFFFFF",
	"featured_post_category_bgcolor" : "#EB5A3E",
	"featured_post_category_color" : "#FFFFFF",
	"featured_post_meta_color" : "#FFFFFF",
	"featured_post_meta_icon_color" : "#FFFFFF",
	"featured_post_hover_color" : "#a8d8ff",
	"feature_posts_columns" : "three_columns",
	"feature_posts_overlay_opacity" : 4,
	"feature_posts_posts_number" : 6,
	"feature_posts_height" : 350,
	"feature_posts_image_size" : "cover",
	"feature_posts_radius" : 0,
	"feature_posts_text_alignment" : "text-left",
	"feature_posts_title_alignment" : "align-bottom",
	"disable_feature_posts_title" : false,
	"feature_posts_font_control":{
		"font-family": "Jost",
		"variant": "500",
		"font-size": "18px",
		"text-transform": "capitalize",
		"line-height": "1.4",
		"font-weight": 500,
		"font-style": "normal"
	},
	"disable_feature_title_divider" : false,
	"hide_featured_posts_category" : false,
	"featured_posts_cat_font_control":{
		"font-family": "Poppins",
		"variant": "regular",
		"font-size": "13px",
		"text-transform": "uppercase",
		"line-height": "1",
		"font-weight": 400,
		"font-style": "normal"
	},
	"hide_featured_posts_date" : false,
	"hide_featured_posts_author" : false,
	"hide_featured_posts_comment" : false,
	"featured_posts_meta_font_control":{
		"font-family": "Poppins",
		"variant": "regular",
		"font-size": "13px",
		"text-transform": "capitalize",
		"line-height": "1.6",
		"font-weight": 400,
		"font-style": "normal"
	},
	"disable_featured_pages_section" : false,
	"disable_featured_pages_section_title" : true,
	"featured_pages_section_title_font_control":{
		"font-family": "Jost",
		"variant": "600",
		"font-size": "36px",
		"text-transform": "none",
		"line-height": "1.2",
		"font-weight": 600,
		"font-style": "normal"
	},
	"disable_featured_pages_section_description" : true,
	"featured_pages_section_description_font_control":{
		"font-family": "Poppins",
		"variant": "regular",
		"font-size": "15px",
		"text-transform": "none",
		"line-height": "1.8",
		"font-weight": 400,
		"font-style": "normal"
	},
	"featured_pages_section_title_desc_alignment" : "text-left",
	"featured_pages_section_layouts" : "featured_pages_layout_one",
	"featured_pages_columns" : "four_columns",
	"featured_pages_overlay_opacity" : 2,
	"featured_pages_height" : 250,
	"featured_pages_image_size" : "cover",
	"featured_pages_radius" : 0,
	"disable_featured_pages_title" : false,
	"featured_pages_title_color" : "#1a1a1a",
	"featured_pages_hover_color" : "#086abd",
	"featured_pages_text_alignment" : "text-center",
	"featured_pages_title_alignment" : "align-center",
	"featured_pages_font_control":{
		"font-family": "Jost",
		"variant": "500",
		"font-size": "18px",
		"text-transform": "uppercase",
		"line-height": "1.4",
		"font-weight": 500,
		"font-style": "normal"
	},
	"disable_mobile_feature_posts" : false,
	"blog_advertisement_banner_link" : "#",
	"blog_advertisement_banner_target" : true,
	"archive_post_layout" : "grid-thumbnail",
	"archive_post_per_page" : 10,
	"posts_border_radius_thumbnail" : 0,
	"disable_date_thumbnail" : false,
	"disable_author_thumbnail" : true,
	"disable_comment_thumbnail" : true,
	"disable_excerpt_thumbnail" : true,
	"disable_button_thumbnail" : true,
	"disable_mobile_blog_advertisement_banner" : false,
	"disable_feature_posts_two_section" : false,
	"disable_feature_posts_two_section_title" : true,
	"feature_posts_two_section_title_font_control":{
		"font-family": "Jost",
		"variant": "600",
		"font-size": "36px",
		"text-transform": "none",
		"line-height": "1.2",
		"font-weight": 600,
		"font-style": "normal"
	},
	"disable_feature_posts_two_section_description" : true,
	"feature_posts_two_section_description_font_control":{
		"font-family": "Poppins",
		"variant": "regular",
		"font-size": "15px",
		"text-transform": "none",
		"line-height": "1.8",
		"font-weight": 400,
		"font-style": "normal"
	},
	"feature_posts_two_section_title_desc_alignment" : "text-left",
	"feature_posts_two_title_color" : "#FFFFFF",
	"feature_posts_two_category_bgcolor" : "#EB5A3E",
	"feature_posts_two_category_color" : "#FFFFFF",
	"feature_posts_two_meta_color" : "#FFFFFF",
	"feature_posts_two_meta_icon_color" : "#FFFFFF",
	"feature_posts_two_hover_color" : "#a8d8ff",
	"feature_posts_two_overlay_opacity" : 4,
	"feature_posts_two_image_size" : "cover",
	"feature_posts_two_radius" : 0,
	"feature_posts_two_horizontal_alignment" : "text-left",
	"feature_posts_two_vertical_title_alignment" : "align-bottom",
	"disable_feature_posts_two_title" : false,
	"feature_posts_two_font_control":{
		"font-family": "Jost",
		"variant": "500",
		"font-size": "22px",
		"text-transform": "capitalize",
		"line-height": "1.4",
		"font-weight": 500,
		"font-style": "normal"
	},
	"hide_feature_posts_two_category" : false,
	"feature_posts_two_cat_font_control":{
		"font-family": "Poppins",
		"variant": "regular",
		"font-size": "13px",
		"text-transform": "uppercase",
		"line-height": "1",
		"font-weight": 400,
		"font-style": "normal"
	},
	"hide_feature_posts_two_date" : false,
	"hide_feature_posts_two_author" : false,
	"hide_feature_posts_two_comment" : false,
	"feature_posts_two_meta_font_control":{
		"font-family": "Poppins",
		"variant": "regular",
		"font-size": "13px",
		"text-transform": "capitalize",
		"line-height": "1.6",
		"font-weight": 400,
		"font-style": "normal"
	},
	"disable_mobile_feature_posts_two" : false,
	"shop_product_title_font_control":{
		"font-family": "Jost",
		"variant": "500",
		"font-size": "21px",
		"text-transform": "none",
		"line-height": "1.4",
		"font-weight": 500,
		"font-style": "normal",
		"letter-spacing": 0,
		"text-decoration": "none"
	},
	"shop_product_price_font_control":{
		"font-family": "Jost",
		"variant": "600",
		"font-size": "16px",
		"text-transform": "none",
		"line-height": "1.3",
		"font-weight": 600,
		"font-style": "normal",
		"letter-spacing": 0,
		"text-decoration": "none"
	},
	"shop_cart_button_font_control":{
		"font-family": "Jost",
		"variant": "regular",
		"font-size": "13px",
		"text-transform": "uppercase",
		"line-height": "1.5",
		"font-weight": 400,
		"font-style": "normal",
		"letter-spacing": 0,
		"text-decoration": "none"
	},
	"header_advertisement_text_color": "#333333",
	"disable_header_advertisement_text": false,
	"advertisement_text_font_control":{
		"font-family": "Poppins",
		"variant": "regular",
		"font-size": "14px",
		"text-transform": "none",
		"font-weight": 400,
		"font-style": "normal",
		"text-decoration": "none"
	},
	"disable_mobile_header_advertisement_text": false,
	"disable_mobile_woocommerce_compare": false,
	"disable_mobile_woocommerce_wishlist": false,
	"disable_mobile_woocommerce_account": false,
	"disable_mobile_woocommerce_cart": false
}